{
    "group_name": "message",
    "title": "Custom Fields Min Width",
    "description": "",
    "property_type": "value",
    "css_components": [],
    "value_type": "unit",
    "value_parameters": "",
    "depends_on": "",
    "value_group": "",
    "property_value": "70px",
    "display_order": 550
}